{
  "Gemfile": "b97e594512541d76eefec5b4c7e58933",
  "LICENSE": "a0144634e730a373bce18d6b7c149e5d",
  "README.md": "711431bb89d41524e0e425710344a706",
  "Rakefile": "a60058e0b986acc168f328ebb27ca904",
  "manifests/conf.pp": "e8bcad3a67ed39280e405cbe828b6cd7",
  "manifests/init.pp": "6e39eea3bd1ec0cc528c4bcbcac9ac26",
  "manifests/params.pp": "4ca00b6455d4a58adaa533a8d40141bc",
  "manifests/plugin/decodeutfkeys.pp": "3d65d4381d0a76472cc082f713f2a306",
  "manifests/plugin/geoip.pp": "3c56f3c212c57db679173f2967561092",
  "metadata.json": "05bc3ddc0bd29c3cca936f07f3e6af7f",
  "spec/acceptance/awstats_spec.rb": "fa4243a0bad625d11651a3daa159eed5",
  "spec/acceptance/nodesets/aix-71-vcloud.yml": "de6cc5bf18be2be8d50e62503652cb32",
  "spec/acceptance/nodesets/centos-59-x64.yml": "57eb3e471b9042a8ea40978c467f8151",
  "spec/acceptance/nodesets/centos-64-x64-pe.yml": "ec075d95760df3d4702abea1ce0a829b",
  "spec/acceptance/nodesets/centos-64-x64.yml": "9cde7b5d2ab6a42366d2344c264d6bdc",
  "spec/acceptance/nodesets/centos-65-x64.yml": "3e5c36e6aa5a690229e720f4048bb8af",
  "spec/acceptance/nodesets/debian-607-x64.yml": "d566bf76f534e2af7c9a4605316d232c",
  "spec/acceptance/nodesets/debian-70rc1-x64.yml": "31ccca73af7b74e1cc2fb0035c230b2c",
  "spec/acceptance/nodesets/debian-73-x64.yml": "bd3ea8245ce691c2b234529d62d043eb",
  "spec/acceptance/nodesets/default.yml": "9cde7b5d2ab6a42366d2344c264d6bdc",
  "spec/acceptance/nodesets/fedora-18-x64.yml": "acc126fa764c39a3b1df36e9224a21d9",
  "spec/acceptance/nodesets/sles-11-x64.yml": "44e4c6c15c018333bfa9840a5e702f66",
  "spec/acceptance/nodesets/sles-11sp1-x64.yml": "fa0046bd89c1ab4ba9521ad79db234cd",
  "spec/acceptance/nodesets/ubuntu-server-10044-x64.yml": "dc0da2d2449f66c8fdae16593811504f",
  "spec/acceptance/nodesets/ubuntu-server-12042-x64.yml": "78a3ee42652e26119d90aa62586565b2",
  "spec/acceptance/nodesets/ubuntu-server-1404-x64.yml": "5f0aed10098ac5b78e4217bb27c7aaf0",
  "spec/spec_helper.rb": "0db89c9a486df193c0e40095422e19dc",
  "spec/spec_helper_acceptance.rb": "3bd7d661d190de21eba903d2f2bbae5b",
  "spec/unit/classes/awstats_spec.rb": "eeee67a3fcac13b9e142678e6c56c7ac",
  "spec/unit/defines/conf_spec.rb": "6e9ecebeb51a272df768f972eadd3f09",
  "templates/awstats.conf.erb": "e73cd98f84f43d7c0d13c21226290503"
}