{
  "name": "jfryman-selinux",
  "version": "999.999.999",
  "author": "James Fryman",
  "summary": "This class manages SELinux on RHEL based systems",
  "license": "Apache-2.0",
  "source": "https://github.com/jfryman/puppet-selinux",
  "project_page": "https://github.com/jfryman/puppet-selinux",
  "issues_url": "https://github.com/jfryman/puppet-selinux/issues",
  "operatingsystem_support": [
    {
      "operatingsystem": "RedHat",
      "operatingsystemrelease": [
        "5",
        "6",
        "7"
      ]
    },
    {
      "operatingsystem": "Fedora",
      "operatingsystemrelease": [
        "19",
        "20",
        "21",
        "22",
        "23",
        "24"
      ]
    },
    {
      "operatingsystem": "Amazon",
      "operatingsystemrelease": [
        "5.0",
        "6.0",
        "7.0"
      ]
    }
  ],
  "requirements": [
    {
      "name": "puppet",
      "version_requirement": ">= 4.6.1 < 5.0.0"
    }
  ],
  "dependencies": [
    {"name":"puppetlabs/stdlib","version_requirement":">= 4.6.0 < 5.0.0"}
  ]
}
